<?xml version="1.0" encoding="utf-8"?>
<svg version="1.1" id="Layer_1" xmlns="http://www.w3.org/2000/svg" xmlns:xlink="http://www.w3.org/1999/xlink" x="0px"
	y="0px" viewBox="0 0 540 100" style="enable-background:new 0 0 540 100;" xml:space="preserve">
	<style type="text/css">
		.st0 {
			fill: #999;
		}

		.st1 {
			fill: #999;
		}

		.st2 {
			fill: #999;
		}

		.st3 {
			fill: #999;
			enable-background: new;
		}

		.st4 {
			fill: #999;
		}
	</style>
	<g id="Icon">
		<path class="st1" d="M71.76,33.41c6.34,0,6.34,8.52,6.34,18.44S71.45,81.1,55.45,81.1s-21.3-8.19-26.47-15.29
		s-12.66-19.09-5.81-25.03c-1.72-10.47,4.51-9.7,4.51-9.7s0-5.78,4.48-8.09c4.37-2.25,8.44,2.31,8.44,2.31s7.1-4.01,11.89,0.74
		s10.74,14.35,10.74,14.35S65.43,33.41,71.76,33.41z" stroke="none" />
		<path d="M72.64,64.86c-3.46,8.06-11.21,13.35-19.98,13.39c-7.53,0-13.83-5.39-17.81-9.96c-4.28-5.42-7.93-11.32-10.87-17.58
		c-1.03-2.93-1.11-4.72,0-5.68c1.11-0.97,3.34-0.26,4.54,1.23c1.2,1.49,8.79,11.51,9.02,12.01c0.24,0.51,0.81,0.75,1.35,0.59
		c0.48-0.4,0.55-1.12,0.15-1.61l0,0L26.67,39.66c-1.11-1.53-0.78-3.67,0.75-4.79c0.04-0.02,0.07-0.05,0.1-0.07
		c1.62-1.11,3.82-0.73,4.98,0.85l10.49,14.33c0.24,0.49,0.84,0.7,1.33,0.45c0.02-0.01,0.05-0.02,0.07-0.04
		c0.5-0.35,0.35-1.05,0-1.55L32.56,30.82c-1.11-1.53-0.78-3.67,0.75-4.79c0.04-0.02,0.07-0.05,0.1-0.07
		c1.61-1.12,3.83-0.75,4.98,0.85L51.16,45.5c0.35,0.47,1,0.85,1.49,0.5c0.5-0.35,0.29-1.08,0-1.61c-1.61-2.67-7.21-12.25-8.14-13.94
		s-1.14-3.4,0-4.19s3.66-0.38,6.86,2.93c3.9,4.79,7.36,9.9,10.37,15.29c0.26,0.45,0.57,0.85,0.94,1.2c1.23,1.2,2.08,0.97,2.61-0.18
		s1.23-9.26,5.86-9.08c1.67,0,2.93,1.67,3.54,5.86C76.1,49.84,75.39,57.66,72.64,64.86z M80.75,41.42
		c-0.85-7.15-4.16-10.84-9.26-10.99c-3.42-0.2-6.69,1.43-8.58,4.28c-2.06-3.39-4.39-6.61-6.97-9.61c-6.5-7-11.72-6.09-14.65-4.04
		c-3.35-2.43-7.87-2.52-11.31-0.21c-2.7,1.81-4.3,4.86-4.25,8.12c-2.97,1.27-5.09,3.94-5.65,7.12c-0.28,1.35-0.28,2.75,0,4.1
		l-0.5,0.44c-2.93,2.93-3.54,6.97-1.52,12.39c3.22,6.89,7.27,13.37,12.04,19.31c7,8.03,14.65,12.1,22.47,12.1
		c11.29-0.01,21.47-6.78,25.84-17.2c3.19-8.24,4.02-17.21,2.4-25.9" fill="#fff" />
		<path class="st2" d="M66.16,63.54c-1.77-3.67-2.76-7.65-2.93-11.72c0-0.86-0.7-1.55-1.55-1.55c-0.84,0-1.52,0.68-1.52,1.52
		c0,0.01,0,0.02,0,0.03c0.16,4.57,1.27,9.06,3.25,13.18c0.41,0.75,1.35,1.03,2.11,0.62l0,0c0.74-0.4,1.03-1.32,0.62-2.06
		c0-0.01-0.01-0.01-0.01-0.02 M56.82,50.94c0.49,0.69,0.33,1.64-0.36,2.12c-0.01,0.01-0.01,0.01-0.02,0.01
		c-3.59,2.88-6.58,6.43-8.79,10.46c-0.44,0.73-1.38,0.97-2.11,0.53c-0.73-0.44-0.97-1.38-0.53-2.11l0,0
		c2.42-4.4,5.71-8.26,9.67-11.37c0.7-0.5,1.66-0.34,2.17,0.35l0,0" />
	</g>
	<g id="Lettering">
		<path id="Y" class="st4" d="M502.65,60.3l-7.9-23.8h-14.5l15.5,38.8c-0.9,1.2-1.9,1.6-3.3,1.6c-1.5,0-3.8-0.8-6.1-2.1l-4.2,9.7
		c3.6,2.1,7.7,3.4,12.6,3.4c7.9,0,11.6-3.6,15-12.8l14.5-38.5h-14.2L502.65,60.3z" />
		<path id="T" class="st4" d="M468.55,76.8c3.9,0,7.2-0.9,9.6-2.3V63.7c-1.7,0.8-3.4,1.3-5.3,1.3c-2.6,0-3.8-1.2-3.8-3.9V47.6h9.2
		V36.5h-9.2v-10h-13.7v10h-4.7v11.1h4.7v16.1C455.35,73.2,460.25,76.8,468.55,76.8L468.55,76.8z" />
		<path id="R" class="st4"
			d="M420.85,76h13.9V63.7c0-9.1,4.1-13.2,11.3-13.2h1.2V35.9c-6.6-0.3-10.2,3.2-12.5,8.6v-8h-13.9V76z" />
		<path id="A" class="st4" d="M410.6,40.7c-3.1-3.1-8-4.8-15-4.8c-6.8,0-11.5,1.2-16,3.1l2.8,9.7c3.6-1.3,6.8-2.2,11-2.2
		c5.3,0,7.9,2.3,7.9,6.5v0.7c-2.3-0.9-5.8-1.5-9.5-1.5c-9.3,0-15.5,4.2-15.5,12.4v0.1c-0.1,7.8,5.6,12.2,13.1,12.2
		c5.2,0,8.9-2,11.7-5V76h13.7V53.3C414.8,47.8,413.6,43.7,410.6,40.7z M401.3,61.7c0,3.9-2.9,6.5-7,6.5c-2.8,0-4.9-1.6-4.9-4.3v-0.1
		c0-3,2.3-4.9,6.4-4.9c2,0,4,0.4,5.5,1V61.7z" />
		<path id="P" class="st4" d="M354.75,35.7c-5.9,0-9.3,2.8-12,6.1v-5.3h-13.9v51.2h0.1h13.9V71.2c2.6,3,6.1,5.7,12,5.7
		c9.3,0,17.4-7.8,17.4-20.7v-0.1C372.25,43.5,364.15,35.7,354.75,35.7z M358.75,56.3c0,5.3-3.7,9-8.1,9c-4.5,0-8.1-3.7-8.1-9v-0.1
		c0-5.3,3.6-9,8.1-9s8.1,3.7,8.1,9V56.3z" />
		<path id="E" class="st4" d="M323.25,57.2c0-11.6-6.3-21.6-19.9-21.6c-11.7,0-19.9,9.1-19.9,20.7v0.1c0,12.2,8.8,20.5,21.2,20.5
		c7.8,0,13.3-3.2,17.1-8l-7.7-6.4c-2.8,2.8-5.4,4-8.8,4c-4.3,0-7.4-2.2-8.5-6.5h26.4C323.25,59.1,323.25,58,323.25,57.2z M296.55,53
		c0.7-4.4,3.2-7.2,6.9-7.2c3.8,0,6.4,2.8,6.9,7.2H296.55z" />
		<path id="S" class="st4" d="M263.15,76.9c9.6,0,16.1-4.5,16.1-13.2v-0.1c0-7.7-6.2-10.4-14-12.6c-4.1-1.2-6.4-2-6.4-3.5v-0.1
		c0-1.2,1.1-2,3.2-2c3.1,0,7.6,1.4,11.7,3.7l4.7-8.8c-4.5-2.9-10.5-4.6-16.3-4.6c-9.1,0-15.8,4.7-15.8,13.1v0.1
		c0,7.9,6.2,10.5,14,12.6c4.2,1.2,6.4,1.8,6.4,3.4V65c0,1.4-1.2,2.1-3.6,2.1c-4.1,0-9-1.5-13.5-4.5l-5.2,8.3
		C249.95,74.9,256.55,76.9,263.15,76.9L263.15,76.9z" />
		<path id="U" class="st4" d="M214.65,76.9c5.6,0,9.3-3.1,11.8-6.4V76h13.8V36.5h-13.8v21.4c0,4.3-2.5,6.6-5.8,6.6
		c-3.4,0-5.6-2.3-5.6-6.6V36.5h-13.9v25.8C201.15,71.3,206.25,76.9,214.65,76.9z" />
		<path id="O" class="st4" d="M174.35,76.9c12.7,0,21.9-9.4,21.9-20.7v-0.1c0-11.2-9.1-20.5-21.8-20.5c-12.6,0-21.8,9.4-21.8,20.7
		v0.1C152.65,67.7,161.85,76.9,174.35,76.9L174.35,76.9z M174.55,65.2c-4.9,0-8.4-4.1-8.4-8.9v-0.1c0-4.8,3.2-8.8,8.2-8.8
		c4.9,0,8.5,4.1,8.5,9v0.1C182.85,61.2,179.55,65.2,174.55,65.2z" />
		<polygon id="H" class="st4" points="99.75,76 113.95,76 113.95,56.6 132.15,56.6 132.15,76 146.25,76 146.25,24.9 132.05,24.9 
		132.05,44 113.85,44 113.85,24.9 99.75,24.9 	" />
	</g>
</svg>